<svg xmlns="http://www.w3.org/2000/svg" width="200px" height="49px">
<polygon points="60 0,80 50,120 50,140 0,104 0, 100 10,96 0" style="fill:orange;stroke:black;stroke-width:1"/>
<image href="icon.svg" x="96" y="25" height="10px" width="10px" />
</svg>